excercise/pro1/trace.vcd
$date
     Apr 16, 2022       14:35:47
$end

$version
 SystemC 2.3.4_pub_rev_20191203-Accellera --- Apr 15 2022 15:01:01
$end

$timescale
     1 ps
$end

$scope module SystemC $end
$var wire    1  aaaaa  output_signal       $end
$upscope $end
$enddefinitions  $end

$comment
All initial values are dumped below at time 0 sec = 0 timescale units.
$end

$dumpvars
0aaaaa
$end

#10000
1aaaaa

#20000
0aaaaa

#30000
1aaaaa

#40000
0aaaaa

#50000
1aaaaa

#60000
0aaaaa

#70000
1aaaaa

#80000
0aaaaa

#90000
1aaaaa

#100000
0aaaaa

#110000
1aaaaa

#120000
0aaaaa

#130000
1aaaaa

#140000
0aaaaa

#150000
1aaaaa

#160000
0aaaaa

#170000
1aaaaa

#180000
0aaaaa

#190000
1aaaaa

#200000
0aaaaa

#210000
1aaaaa

#220000
0aaaaa

#230000
1aaaaa

#240000
0aaaaa

#250000
1aaaaa

#260000
0aaaaa

#270000
1aaaaa

#280000
0aaaaa

#290000
1aaaaa

#300000
0aaaaa

#310000
1aaaaa

#320000
0aaaaa

#330000
1aaaaa

#340000
0aaaaa

#350000
1aaaaa

#360000
0aaaaa

#370000
1aaaaa

#380000
0aaaaa

#390000
1aaaaa

#400000
0aaaaa

#410000
1aaaaa

#420000
0aaaaa

#430000
1aaaaa

#440000
0aaaaa

#450000
1aaaaa

#460000
0aaaaa

#470000
1aaaaa

#480000
0aaaaa

#490000
1aaaaa

#500000
0aaaaa

#510000
1aaaaa

#520000
0aaaaa

#530000
1aaaaa

#540000
0aaaaa

#550000
1aaaaa

#560000
0aaaaa

#570000
1aaaaa

#580000
0aaaaa

#590000
1aaaaa

#600000
0aaaaa

#610000
1aaaaa

#620000
0aaaaa

#630000
1aaaaa

#640000
0aaaaa

#650000
1aaaaa

#660000
0aaaaa

#670000
1aaaaa

#680000
0aaaaa

#690000
1aaaaa

#700000
0aaaaa

#710000
1aaaaa

#720000
0aaaaa

#730000
1aaaaa

#740000
0aaaaa

#750000
1aaaaa

#760000
0aaaaa

#770000
1aaaaa

#780000
0aaaaa

#790000
1aaaaa

#800000
0aaaaa

#810000
1aaaaa

#820000
0aaaaa

#830000
1aaaaa

#840000
0aaaaa

#850000
1aaaaa

#860000
0aaaaa

#870000
1aaaaa

#880000
0aaaaa

#890000
1aaaaa

#900000
0aaaaa

#910000
1aaaaa

#920000
0aaaaa

#930000
1aaaaa

#940000
0aaaaa

#950000
1aaaaa

#960000
0aaaaa

#970000
1aaaaa

#980000
0aaaaa

#990000
1aaaaa

